module github.com/reviewdog/reviewdog

go 1.14

require (
	cloud.google.com/go v0.69.1
	cloud.google.com/go/datastore v1.1.0
	contrib.go.opencensus.io/exporter/stackdriver v0.13.4
	github.com/bradleyfalzon/ghinstallation v1.1.1
	github.com/golang/protobuf v1.4.3
	github.com/google/go-cmp v0.5.2
	github.com/google/go-github/v32 v32.1.0
	github.com/haya14busa/go-actions-toolkit v0.0.0-20200105081403-ca0307860f01
	github.com/haya14busa/secretbox v0.0.0-20180525171038-07c7ecf409f5
	github.com/justinas/nosurf v1.1.1
	github.com/kylelemons/godebug v1.1.0
	github.com/mattn/go-shellwords v1.0.10
	github.com/rakyll/statik v0.1.7
	github.com/reviewdog/errorformat v0.0.0-20200929113217-87743a11f4be
	github.com/vvakame/sdlog v0.0.0-20200409072131-7c0d359efddc
	github.com/xanzy/go-gitlab v0.38.1
	go.opencensus.io v0.22.5
	golang.org/x/build v0.0.0-20200616162219-07bebbe343e9
	golang.org/x/net v0.0.0-20201016165138-7b1cca2348c0
	golang.org/x/oauth2 v0.0.0-20200902213428-5d25da1a8d43
	golang.org/x/sync v0.0.0-20201008141435-b3e1573b7520
	google.golang.org/protobuf v1.25.0
	gopkg.in/yaml.v2 v2.3.0
)
